[
    {
      "id": 1,
      "firstName": "Lebron",
      "lastName": "James",
      "email": "lebron@gmail.com",
      "age": 22,
      "password": "lebron123",
      "birthDate": "August 1, 2022"
    },
    {
      "firstName": "Kobe",
      "lastName": "Bryant",
      "email": "kobe@gmail.com",
      "age": 22,
      "password": "kobe123",
      "birthDate": "August 1, 2022"
    }
  ]